<svg width="771" height="515" viewBox="0 0 771 515" fill="none" xmlns="http://www.w3.org/2000/svg">
<g clip-path="url(#clip0_90_839)">
<path fill-rule="evenodd" clip-rule="evenodd" d="M347.84 72.686C295.724 104.842 307.415 185.765 347.84 218.49C376.941 242.048 430.809 232.024 457.909 218.49C496.131 199.4 515.627 101.948 449.878 65.852C415.455 46.9541 359.1 57.2895 347.84 72.686Z" fill="url(#paint0_linear_90_839)" fill-opacity="0.501961"/>
<path opacity="0.6" fill-rule="evenodd" clip-rule="evenodd" d="M751.042 209.039C751.517 210.837 753.359 211.911 755.154 211.44C756.95 210.969 758.02 209.131 757.544 207.334C757.109 205.691 755.533 204.652 753.893 204.846L721.126 56.8635C722.711 56.2604 723.614 54.5461 723.169 52.8682C722.694 51.071 720.852 49.9961 719.057 50.4672C717.261 50.9389 716.191 52.7767 716.667 54.5735C716.696 54.6805 716.729 54.785 716.767 54.8867L606.123 115.874C605.322 114.829 603.945 114.308 602.594 114.662C600.798 115.133 599.728 116.971 600.204 118.768L600.204 118.769C600.68 120.565 602.52 121.64 604.317 121.169C604.912 121.013 605.428 120.706 605.834 120.3L651.783 154.336C651.097 155.484 650.857 156.897 651.227 158.294L651.227 158.293C651.502 159.332 652.076 160.214 652.831 160.87L540.607 318.73C539.134 317.865 537.378 317.483 535.598 317.736L517.096 232.301C518.689 231.703 519.599 229.983 519.154 228.301C518.678 226.504 516.837 225.429 515.041 225.9C513.245 226.371 512.176 228.21 512.652 230.006C513.071 231.587 514.547 232.61 516.119 232.511L534.619 317.94C530.542 319.065 528.125 323.266 529.213 327.372L529.212 327.372C530.309 331.511 534.549 333.988 538.684 332.902C542.82 331.818 545.284 327.583 544.188 323.444C544.163 323.349 544.136 323.254 544.107 323.16L654.019 281.133C654.838 281.968 656.069 282.352 657.279 282.035C659.074 281.563 660.144 279.725 659.668 277.929C659.313 276.588 658.199 275.65 656.91 275.455L656.713 162.114C656.982 162.088 657.253 162.04 657.523 161.969C658.808 161.632 659.85 160.837 660.521 159.806L751.11 207.089C750.902 207.697 750.865 208.371 751.041 209.04L751.042 209.039ZM655.91 275.455L655.713 162.114C654.978 162.041 654.274 161.811 653.646 161.45L541.436 319.29C542.416 320.049 543.222 321.046 543.754 322.224L653.416 280.293C653.312 280.087 653.228 279.866 653.166 279.634C652.69 277.837 653.76 275.999 655.556 275.528C655.674 275.497 655.792 275.472 655.91 275.455ZM720.15 57.0775L752.927 205.109C752.374 205.353 751.912 205.735 751.572 206.202L660.983 158.919C661.383 157.926 661.477 156.799 661.181 155.683C660.875 154.527 660.2 153.567 659.317 152.895L718.599 56.811C719.079 57.0174 719.609 57.1139 720.15 57.0775ZM606.428 119.496C606.81 118.776 606.932 117.915 606.706 117.063C606.678 116.956 606.645 116.851 606.607 116.75L717.25 55.7621C717.398 55.955 717.565 56.1299 717.748 56.2849L658.467 152.369C657.393 151.84 656.132 151.68 654.885 152.007C653.88 152.271 653.024 152.814 652.377 153.532L606.428 119.496Z" fill="#C4C4C4"/>
<circle cx="171.88" cy="346.285" r="5.89125" fill="#DDDCE0"/>
<circle cx="28.6773" cy="397.947" r="4.98491" fill="#DDDCE0"/>
<circle cx="114.78" cy="292.81" r="3.17221" fill="#DDDCE0"/>
<circle cx="185.022" cy="257.916" r="3.62539" fill="#DDDCE0"/>
<circle cx="263.031" cy="156.603" r="2.85857" fill="#DDDCE0"/>
<circle cx="146.504" cy="416.075" r="3.17375" fill="#DDDCE0"/>
<circle cx="289.104" cy="245.078" r="5.28958" fill="#DDDCE0"/>
<path d="M185.475 257.463L290.909 244.098M185.475 257.463L172.423 346.716M185.475 257.463L115.233 292.81L172.423 346.716M172.423 346.716L28.5455 398.554M172.423 346.716L146.955 415.62L28.5455 398.554M172.423 346.716L290.909 244.098M172.423 346.716L276.914 366.095L290.909 244.098M290.909 244.098L262.621 156.195M28.5455 398.554L83 513.5" stroke="#DDDCE0"/>
<path d="M373.271 63.8501L370.824 71.4614L368.247 80.6201L366.574 90.1661L365.543 100.486V111.579L366.058 122.802L366.959 128.606" stroke="#7A1490" stroke-miterlimit="22.9256" stroke-linecap="round" stroke-linejoin="round"/>
<path d="M401.209 16.3611L391.943 27.3818L387.692 40.5389L386.562 55.7774" stroke="#7A1490" stroke-miterlimit="22.9256" stroke-linecap="round" stroke-linejoin="round"/>
<path d="M438.479 14.9451L428.14 24.1562L421.699 36.4116L420.122 54.8332" stroke="#7A1490" stroke-miterlimit="22.9256" stroke-linecap="round" stroke-linejoin="round"/>
<path d="M594.565 266.046L594.565 207.659L537.629 155.029H525.2" stroke="#7A1490" stroke-miterlimit="22.9256" stroke-linecap="round" stroke-linejoin="round"/>
<path d="M525.608 112.908L548.958 113.031L558.119 120.357L558.278 174.163" stroke="#7A1490" stroke-miterlimit="22.9256" stroke-linecap="round" stroke-linejoin="round"/>
<path d="M526.046 117.513H545.883L553.871 124.091L553.99 170.153" stroke="#7A1490" stroke-miterlimit="22.9256" stroke-linecap="round" stroke-linejoin="round"/>
<path d="M572.662 105.163L572.954 187.683" stroke="#7A1490" stroke-miterlimit="22.9256" stroke-linecap="round" stroke-linejoin="round"/>
<path d="M577.751 102.195H567.317" stroke="#7A1490" stroke-miterlimit="22.9256" stroke-linecap="round" stroke-linejoin="round"/>
<path d="M577.687 97.6152H567.252" stroke="#7A1490" stroke-miterlimit="22.9256" stroke-linecap="round" stroke-linejoin="round"/>
<path d="M577.557 93.0054H567.123" stroke="#7A1490" stroke-miterlimit="22.9256" stroke-linecap="round" stroke-linejoin="round"/>
<path d="M577.364 88.4902H566.929" stroke="#7A1490" stroke-miterlimit="22.9256" stroke-linecap="round" stroke-linejoin="round"/>
<path d="M577.557 83.7839H567.123" stroke="#7A1490" stroke-miterlimit="22.9256" stroke-linecap="round" stroke-linejoin="round"/>
<path d="M577.43 79.3982H566.995" stroke="#7A1490" stroke-miterlimit="22.9256" stroke-linecap="round" stroke-linejoin="round"/>
<path d="M572.852 10L572.723 76.8199" stroke="#7A1490" stroke-miterlimit="22.9256" stroke-linecap="round" stroke-linejoin="round"/>
<path d="M319.168 124.478L328.7 126.801L344.93 129.381L360.131 130.928L392.334 132.218L418.612 132.734L444.375 129.896L466.016 125.899L488.429 118.803L500.153 113.127" stroke="#7A1490" stroke-miterlimit="22.9256" stroke-linecap="round" stroke-linejoin="round"/>
<path d="M318.976 132.424L328.654 134.745L345.133 137.325L360.567 138.872L393.266 140.162L419.947 140.677L446.106 137.841L468.079 133.843L490.837 126.75L502.74 121.076" stroke="#7A1490" stroke-miterlimit="22.9256" stroke-linecap="round" stroke-linejoin="round"/>
<path d="M545.618 268.087V278.297L524.166 276.255V261.966L545.618 268.087Z" stroke="#7A1490" stroke-miterlimit="22.9256" stroke-linecap="round" stroke-linejoin="round"/>
<path d="M526.938 243.648L551.54 256.418" stroke="#7A1490" stroke-miterlimit="22.9256" stroke-linecap="round" stroke-linejoin="round"/>
<path d="M526.164 233.198L554.632 247.776" stroke="#7A1490" stroke-miterlimit="22.9256" stroke-linecap="round" stroke-linejoin="round"/>
<path d="M533.368 258.695L555.42 267.271L559.14 264.546L558.625 243.004L526.165 223.912L522.042 226.234L522.187 254.57" stroke="#7A1490" stroke-miterlimit="22.9256" stroke-linecap="round" stroke-linejoin="round"/>
<path d="M320.059 171.783L303.57 174.364L277.551 209.837L278.838 235.508" stroke="#7A1490" stroke-miterlimit="22.9256" stroke-linecap="round" stroke-linejoin="round"/>
<path d="M317.755 185.105L314.92 188.716L303.458 183.363L306.162 179.881L317.755 185.105Z" stroke="#7A1490" stroke-miterlimit="22.9256" stroke-linecap="round" stroke-linejoin="round"/>
<path d="M312.537 191.621L310.026 195.362L298.754 189.622L301.523 185.946L312.537 191.621Z" stroke="#7A1490" stroke-miterlimit="22.9256" stroke-linecap="round" stroke-linejoin="round"/>
<path d="M307.796 197.763L305.091 201.568L293.795 195.491L296.515 192.131L307.796 197.763Z" stroke="#7A1490" stroke-miterlimit="22.9256" stroke-linecap="round" stroke-linejoin="round"/>
<path d="M303.049 204.791L300.622 208.52L289.04 202.106L291.615 198.946L303.049 204.791Z" stroke="#7A1490" stroke-miterlimit="22.9256" stroke-linecap="round" stroke-linejoin="round"/>
<path d="M277.103 366.744L276.957 446.544L282.138 513.62" stroke="#7A1490" stroke-miterlimit="22.9256" stroke-linecap="round" stroke-linejoin="round"/>
<path d="M667.155 445.467L670.049 442.99L670.695 425.508L670.455 413.692L667.882 405.638" stroke="#7A1490" stroke-miterlimit="22.9256" stroke-linecap="round" stroke-linejoin="round"/>
<path d="M584.841 464.939L577.88 435.518" stroke="#7A1490" stroke-miterlimit="22.9256" stroke-linecap="round" stroke-linejoin="round"/>
<path d="M560.944 407.09L574.728 433.018L580.911 437.274L615.691 420.376L639.392 415.216L669.922 404.381L669.922 381.205L664.044 365.687" stroke="#7A1490" stroke-miterlimit="22.9256" stroke-linecap="round" stroke-linejoin="round"/>
<path d="M556.236 316.275L590.539 333.426L612.999 355.07L622.392 386.922L642.614 372.904L670.171 363.237L657.511 330.976L646.22 312.277M646.22 312.277L616.85 344.526L595.724 325.434L573.31 314.341L577.948 291.637L584.131 275.384L598.044 263.516L619.685 279.769L636.429 293.701L646.22 312.277Z" stroke="#7A1490" stroke-miterlimit="22.9256" stroke-linecap="round" stroke-linejoin="round"/>
<path d="M638.883 310.438L631.875 297.28L609.257 278.705L605.649 282.833L626.566 300.229L634.325 315.338L638.883 310.438Z" stroke="#7A1490" stroke-miterlimit="22.9256" stroke-linecap="round" stroke-linejoin="round"/>
<path d="M519.713 170.08H534.593L579.622 213.334L579.622 286.464" stroke="#7A1490" stroke-miterlimit="22.9256" stroke-linecap="round" stroke-linejoin="round"/>
<path d="M513.412 186.245L528.869 210.754L570.605 239.65V272.931L556.693 313.177L553.344 332.784L545.358 342.587L523.46 342.329L518.564 335.364V310.339L524.232 305.437L554.375 306.211L557.468 310.935" stroke="#7A1490" stroke-miterlimit="22.9256" stroke-linecap="round" stroke-linejoin="round"/>
<path d="M518.564 310.338L522.429 297.696L527.324 289.183L530.415 282.475" stroke="#7A1490" stroke-miterlimit="22.9256" stroke-linecap="round" stroke-linejoin="round"/>
<path d="M549.995 282.993L519.337 280.67L519.595 253.581L549.995 265.191L549.995 282.993Z" stroke="#7A1490" stroke-miterlimit="22.9256" stroke-linecap="round" stroke-linejoin="round"/>
<path d="M551.971 334.47L552.186 371.481L560.944 407.089" stroke="#7A1490" stroke-miterlimit="22.9256" stroke-linecap="round" stroke-linejoin="round"/>
<path d="M519.28 336.383L521.557 412.64L521.548 447.347L550.765 512.292" stroke="#7A1490" stroke-miterlimit="22.9256" stroke-linecap="round" stroke-linejoin="round"/>
<path d="M520.12 354.31H546.436L552.095 345.677" stroke="#7A1490" stroke-miterlimit="22.9256" stroke-linecap="round" stroke-linejoin="round"/>
<path d="M560.944 407.089L557.595 456.099L560.944 513.177" stroke="#7A1490" stroke-miterlimit="22.9256" stroke-linecap="round" stroke-linejoin="round"/>
<path d="M513.412 186.245L513.021 237.837L468.49 255.242H365.303L332.939 235.258L333.196 201.46" stroke="#7A1490" stroke-miterlimit="22.9256" stroke-linecap="round" stroke-linejoin="round"/>
<path d="M512.942 225.755L468.41 243.16H365.223L332.86 223.176" stroke="#7A1490" stroke-miterlimit="22.9256" stroke-linecap="round" stroke-linejoin="round"/>
<path d="M521.933 247.669L471.285 272.667H407.909H350.973L308.464 244.804L308.722 207.395L322.12 185.724" stroke="#7A1490" stroke-miterlimit="22.9256" stroke-linecap="round" stroke-linejoin="round"/>
<path d="M453.22 272.363L449.389 303.36L519.892 354.253" stroke="#7A1490" stroke-miterlimit="22.9256" stroke-linecap="round" stroke-linejoin="round"/>
<path d="M449.056 303.117H372.244L367.163 272.988" stroke="#7A1490" stroke-miterlimit="22.9256" stroke-linecap="round" stroke-linejoin="round"/>
<path d="M395.743 303.582L394.455 341.8" stroke="#7A1490" stroke-miterlimit="22.9256" stroke-linecap="round" stroke-linejoin="round"/>
<path d="M430.523 304.024L429.234 342.242" stroke="#7A1490" stroke-miterlimit="22.9256" stroke-linecap="round" stroke-linejoin="round"/>
<path d="M293.657 359.97L372.471 303.615" stroke="#7A1490" stroke-miterlimit="22.9256" stroke-linecap="round" stroke-linejoin="round"/>
<path d="M308.615 222.865L290.302 222.737L264.539 250.213L264.665 263.369L231.43 288.523L208.373 327.61L208.115 357.665L225.867 366.504H276.913" stroke="#7A1490" stroke-miterlimit="22.9256" stroke-linecap="round" stroke-linejoin="round"/>
<path d="M264.665 263.369H293.656L277.73 284.014L252.003 296.265L229.951 329.751L225.868 365.273" stroke="#7A1490" stroke-miterlimit="22.9256" stroke-linecap="round" stroke-linejoin="round"/>
<path d="M324.561 379.163V369.009L358.362 342.178H464.196L502.582 369.009L503.613 377.524L502.969 481.314" stroke="#7A1490" stroke-miterlimit="22.9256" stroke-linecap="round" stroke-linejoin="round"/>
<path d="M328.422 377.941L349.934 377.876L349.87 388.26L328.368 388.147L328.422 377.941Z" stroke="#7A1490" stroke-miterlimit="22.9256" stroke-linecap="round" stroke-linejoin="round"/>
<path d="M328.368 379.391L309.389 379.391L303.334 379.842L297.409 381.132L291.289 383.003L285.428 385.97L281.177 389.711L276.914 393.864V398.934H283.448V395.498L288.069 392.419L291.74 390.065L296.411 388.295L300.985 386.683L305.362 385.841L309.646 385.582H328.368" stroke="#7A1490" stroke-miterlimit="22.9256" stroke-linecap="round" stroke-linejoin="round"/>
<path d="M327.649 396.516L349.162 396.452L349.097 406.836H327.649V396.516Z" stroke="#7A1490" stroke-miterlimit="22.9256" stroke-linecap="round" stroke-linejoin="round"/>
<path d="M327.551 397.966L308.615 397.966L302.561 398.418L296.636 399.708L290.516 401.578L284.655 404.545L280.404 408.286L276.914 412.649V417.51H283.69L283.754 414.027L287.295 410.995L290.967 408.64L295.639 406.871L300.213 405.258L304.59 404.416L308.873 404.158H327.551" stroke="#7A1490" stroke-miterlimit="22.9256" stroke-linecap="round" stroke-linejoin="round"/>
<path d="M328.293 416.898L349.805 416.834L349.741 427.218H328.293V416.898Z" stroke="#7A1490" stroke-miterlimit="22.9256" stroke-linecap="round" stroke-linejoin="round"/>
<path d="M287.891 514.505L292.759 446.795L294.087 428.65" stroke="#7A1490" stroke-miterlimit="22.9256" stroke-linecap="round" stroke-linejoin="round"/>
<path d="M328.213 418.348L309.259 418.347L303.206 418.799L297.28 420.089L291.161 421.959L285.3 424.926L281.05 428.667L276.914 433.068V437.891H283.448V434.293L287.941 431.376L291.611 429.022L296.284 427.252L300.856 425.639L305.234 424.797L309.517 424.539H327.96" stroke="#7A1490" stroke-miterlimit="22.9256" stroke-linecap="round" stroke-linejoin="round"/>
<path d="M208.116 357.665L198.99 368.229L199.634 383.063L204.142 389.384L224.643 397.132H276.914" stroke="#7A1490" stroke-miterlimit="22.9256" stroke-linecap="round" stroke-linejoin="round"/>
<path d="M204.142 389.383L196.8 395.188L197.315 410.281L224.495 418.794H276.914" stroke="#7A1490" stroke-miterlimit="22.9256" stroke-linecap="round" stroke-linejoin="round"/>
<path d="M200.579 411.303L195.512 424.599L221.404 432.983L276.838 433.468" stroke="#7A1490" stroke-miterlimit="22.9256" stroke-linecap="round" stroke-linejoin="round"/>
<path d="M195.584 424.9L189.645 513.62" stroke="#7A1490" stroke-miterlimit="22.9256" stroke-linecap="round" stroke-linejoin="round"/>
<path d="M220.176 378.988L220.306 388.662L206.715 382.923L206.908 373.699L220.176 378.988Z" stroke="#7A1490" stroke-miterlimit="22.9256" stroke-linecap="round" stroke-linejoin="round"/>
<path d="M438.627 227.659H371.655L340.291 211.293L325.864 189.881L317.105 156.084L316.074 130.801V112.741L321.483 85.1381L332.819 55.9846L361.037 28.3765L401.057 16.1255L438.627 14.9004L467.816 22.7043L491.003 37.9258L510.068 60.887L520.372 84.1063L526.046 117.513L524.792 155.378L513.358 186.414L485.589 213.775L438.627 227.659Z" stroke="#7A1490" stroke-miterlimit="22.9256" stroke-linecap="round" stroke-linejoin="round"/>
<path d="M503.557 195.398L506.719 181.791L508.007 163.989L506.977 144.898L504.915 127.87L497.959 104.651L491.003 93.0421L483.275 82.4637L473.485 73.9502L463.18 66.7272L450.298 61.0512L436.901 56.9232L421.186 54.8595L400.06 54.3433L383.057 56.1494" stroke="#7A1490" stroke-miterlimit="22.9256" stroke-linecap="round" stroke-linejoin="round"/>
<path d="M383.057 56.1489L373.91 58.5981L364.248 61.9523L354.588 67.4988L345.956 73.5614L337.068 83.3655L330.885 92.6533L326.763 100.651L322.512 111.228L319.168 124.478L316.525 143.536" stroke="#7A1490" stroke-miterlimit="22.9256" stroke-linecap="round" stroke-linejoin="round"/>
<path d="M528.468 325.259C528.876 330.568 532.739 333.298 536.635 333.298C541.116 333.298 544.75 329.703 544.75 325.268C544.75 320.834 541.116 317.239 536.635 317.239C532.351 317.239 528.468 320.359 528.468 325.259Z" stroke="#7A1490" stroke-miterlimit="22.9256" stroke-linecap="round" stroke-linejoin="round"/>
<path d="M284.672 243.58C284.918 246.82 287.244 248.486 289.589 248.486C292.286 248.486 294.473 246.292 294.473 243.586C294.473 240.879 292.286 238.685 289.589 238.685C287.01 238.685 284.672 240.589 284.672 243.58Z" stroke="#7A1490" stroke-miterlimit="22.9256" stroke-linecap="round" stroke-linejoin="round"/>
<path d="M324.623 425.11L324.623 483.584L347.517 502.999L477.351 502.999L502.97 481.756" stroke="#7A1490"/>
<path d="M308.358 244.811L276.914 284.831L276.914 371.813" stroke="#7A1490"/>
<path d="M323.467 254.611L292.73 293.462L293.656 383.247" stroke="#7A1490"/>
<path fill-rule="evenodd" clip-rule="evenodd" d="M416.976 412.523L416.09 410.833L403.089 386.021L365.697 386.177L401.177 442.832L416.977 468.062L432.776 442.831L432.776 442.831L468.255 386.176L430.864 386.02L417.862 410.833L416.976 412.523ZM430.26 385.018L468.88 385.178L470.057 385.183L469.432 386.18L433.623 443.362L417.567 469.005L416.977 469.947L416.387 469.005L400.329 443.363L364.52 386.181L363.896 385.184L365.072 385.179L403.692 385.019L416.412 409.291L416.976 410.369L417.541 409.291L430.26 385.018ZM365.917 395.953V458.823V460.847L366.917 459.087L386.138 425.258L366.917 395.657L365.917 394.117V395.953ZM366.917 397.493V457.063L384.969 425.292L366.917 397.493ZM467.035 457.063L448.984 425.292L467.035 397.493V457.063ZM447.814 425.258L467.035 395.657L468.035 394.117V395.953V458.823V460.847L467.035 459.087L447.814 425.258Z" fill="#7A1490"/>
<path d="M43.6924 391.622L43.6924 375C43.6924 373.895 42.797 373 41.6924 373H18.1044C16.9998 373 16.1044 373.895 16.1044 375L16.1044 384.725" stroke="#333333" stroke-width="0.7" stroke-linecap="round" stroke-dasharray="5 5"/>
<rect x="4.41754" y="386.794" width="22.6835" height="0.945145" rx="0.472573" fill="#7A1490"/>
<rect x="4.41754" y="397.191" width="22.6835" height="0.945145" rx="0.472573" fill="#7A1490"/>
<rect x="3" y="389.017" width="25.5189" height="7.0397" rx="3" fill="#7A1490"/>
<circle cx="6.87148" cy="392.536" r="0.879963" fill="white"/>
<circle cx="9.51208" cy="392.536" r="0.879963" fill="white"/>
<rect x="12.8553" y="392.185" width="12.3195" height="0.879963" rx="0.439981" fill="white"/>
<g filter="url(#filter0_d_90_839)">
<path fill-rule="evenodd" clip-rule="evenodd" d="M56.3936 401.538C56.3936 402.357 56.3142 403.159 56.1617 403.939C60.8534 404.031 64.6247 407.414 64.6247 411.574C64.6247 415.229 61.7118 418.285 57.8212 419.034V419.21H21.0222V419.102C15.424 418.388 11.1266 414.198 11.1266 409.137C11.1266 403.573 16.3185 399.063 22.7229 399.063C23.4033 399.063 24.0699 399.114 24.7181 399.212C25.9757 392.557 32.5392 387.484 40.4472 387.484C49.2541 387.484 56.3936 393.776 56.3936 401.538Z" fill="white"/>
</g>
<circle cx="40.7042" cy="396.573" r="2.29433" fill="#7A1490"/>
<circle cx="31.9856" cy="404.833" r="1.83547" fill="#7A1490"/>
<circle cx="34.5091" cy="410.568" r="1.60603" fill="#7A1490"/>
<circle cx="40.7044" cy="413.551" r="1.3766" fill="#7A1490"/>
<circle cx="46.4399" cy="411.027" r="1.14717" fill="#7A1490"/>
<circle cx="46.44" cy="399.096" r="0.6883" fill="#7A1490"/>
<circle cx="48.9634" cy="404.833" r="0.917734" fill="#7A1490"/>
<circle cx="34.509" cy="399.096" r="2.0649" fill="#7A1490"/>
<rect x="701.123" y="266.732" width="4.77544" height="9.55088" rx="2" fill="#7A1490"/>
<rect x="700.327" y="277.875" width="27.8567" height="1.59181" rx="0.795906" fill="#7A1490"/>
<rect x="708.286" y="262.752" width="4.77544" height="13.5304" rx="2" fill="#7A1490"/>
<rect x="715.449" y="257.977" width="4.77544" height="18.3058" rx="2" fill="#7A1490"/>
<rect x="722.613" y="253.201" width="4.77544" height="23.0813" rx="2" fill="#7A1490"/>
<path d="M701.5 258.687C701.139 258.89 701.012 259.348 701.215 259.709C701.418 260.07 701.875 260.198 702.236 259.994L701.5 258.687ZM721.126 245.494C721.114 245.08 720.768 244.754 720.354 244.766L713.607 244.963C713.193 244.975 712.867 245.32 712.879 245.734C712.891 246.149 713.237 246.474 713.651 246.462L719.648 246.287L719.823 252.285C719.835 252.699 720.181 253.025 720.595 253.013C721.009 253.001 721.335 252.655 721.323 252.241L721.126 245.494ZM702.236 259.994C706.464 257.615 712.631 254.819 720.922 246.03L719.831 245.001C711.719 253.6 705.749 256.296 701.5 258.687L702.236 259.994Z" fill="#333333"/>
<g filter="url(#filter1_d_90_839)">
<rect x="631.107" y="223.568" width="72.8389" height="93.65" rx="3" fill="white"/>
<rect x="641.04" y="278.197" width="23.4125" height="5.20278" rx="2.60139" fill="#EBECEC"/>
<rect x="641.04" y="248.4" width="52.9737" height="4.96629" rx="2.48314" fill="#EBECEC"/>
<rect x="641.04" y="236.315" width="23.176" height="4.96629" rx="2.48314" fill="#333333"/>
<rect x="641.04" y="258.332" width="52.9737" height="4.96629" rx="2.48314" fill="#EBECEC"/>
<rect x="641.04" y="268.265" width="52.9737" height="4.96629" rx="2.48314" fill="#EBECEC"/>
<rect x="641.513" y="300.9" width="23.4125" height="5.20278" rx="2.60139" fill="#D9DADA"/>
<path d="M688.721 284.217V288.538H686.436V284.217H688.721ZM688.443 308.138V312.078H686.157V308.138H688.443ZM690.054 303.333C690.054 302.776 689.951 302.303 689.746 301.912C689.551 301.521 689.229 301.175 688.779 300.872C688.34 300.569 687.744 300.276 686.992 299.993C685.723 299.505 684.605 298.987 683.638 298.44C682.681 297.884 681.934 297.195 681.397 296.375C680.859 295.545 680.591 294.495 680.591 293.226C680.591 292.015 680.879 290.965 681.455 290.076C682.031 289.188 682.827 288.504 683.843 288.025C684.868 287.537 686.06 287.293 687.417 287.293C688.452 287.293 689.39 287.449 690.23 287.762C691.069 288.064 691.792 288.514 692.398 289.109C693.003 289.695 693.467 290.413 693.789 291.263C694.111 292.112 694.273 293.084 694.273 294.178H690.068C690.068 293.592 690.005 293.074 689.878 292.625C689.751 292.176 689.566 291.8 689.321 291.497C689.087 291.194 688.804 290.97 688.472 290.823C688.14 290.667 687.774 290.589 687.373 290.589C686.777 290.589 686.289 290.706 685.908 290.94C685.527 291.175 685.249 291.492 685.073 291.893C684.907 292.283 684.824 292.732 684.824 293.24C684.824 293.738 684.912 294.173 685.088 294.544C685.274 294.915 685.591 295.257 686.04 295.569C686.489 295.872 687.105 296.185 687.886 296.507C689.155 296.995 690.269 297.522 691.226 298.089C692.183 298.655 692.93 299.349 693.467 300.169C694.004 300.989 694.273 302.034 694.273 303.304C694.273 304.563 693.98 305.638 693.394 306.526C692.808 307.405 691.987 308.079 690.933 308.548C689.878 309.007 688.657 309.236 687.271 309.236C686.372 309.236 685.479 309.119 684.59 308.885C683.701 308.641 682.896 308.25 682.173 307.713C681.45 307.176 680.874 306.463 680.444 305.574C680.015 304.676 679.8 303.572 679.8 302.264H684.019C684.019 302.977 684.111 303.572 684.297 304.051C684.483 304.52 684.727 304.896 685.029 305.179C685.342 305.452 685.693 305.647 686.084 305.765C686.475 305.882 686.87 305.94 687.271 305.94C687.896 305.94 688.408 305.828 688.809 305.604C689.219 305.379 689.526 305.071 689.732 304.681C689.946 304.28 690.054 303.831 690.054 303.333Z" fill="#7A1490"/>
</g>
<g opacity="0.3">
<rect x="163" y="77" width="13.837" height="1.97671" fill="#C4C4C4"/>
<rect x="163" y="83.9185" width="13.3428" height="1.97671" fill="#C4C4C4"/>
<rect x="167.448" y="87.3777" width="28.6624" height="1.97671" fill="#C4C4C4"/>
<rect x="167.448" y="90.8367" width="12.3545" height="1.97671" fill="#A7A7A7"/>
<rect x="168.93" y="94.2964" width="4.44761" height="1.97671" fill="#C4C4C4"/>
<path d="M174.861 94.2964H193.639V96.2731H174.861V94.2964Z" fill="#C4C4C4"/>
<rect x="168.93" y="97.7554" width="22.7322" height="1.97671" fill="#C4C4C4"/>
<rect x="170.907" y="121.97" width="34.0983" height="1.97671" fill="#C4C4C4"/>
<rect x="197.592" y="87.3777" width="12.3545" height="1.97671" fill="#C4C4C4"/>
<path d="M190.674 101.215H220.325V103.192H190.674V101.215Z" fill="#C4C4C4"/>
<rect x="192.651" y="111.592" width="29.6507" height="1.97671" fill="#C4C4C4"/>
<rect x="178.32" y="115.052" width="8.40104" height="1.97671" fill="#C4C4C4"/>
<rect x="177.825" y="125.43" width="7.41268" height="1.97671" fill="#C4C4C4"/>
<rect x="188.203" y="115.052" width="8.40104" height="1.97671" fill="#C4C4C4"/>
<rect x="186.72" y="125.43" width="7.41268" height="1.97671" fill="#C4C4C4"/>
<rect x="168.93" y="101.215" width="20.2613" height="1.97671" fill="#C4C4C4"/>
<rect x="170.907" y="111.592" width="20.2613" height="1.97671" fill="#C4C4C4"/>
<rect x="170.907" y="115.052" width="5.93014" height="1.97671" fill="#C4C4C4"/>
<rect x="170.907" y="125.43" width="5.43597" height="1.97671" fill="#C4C4C4"/>
<rect x="170.907" y="128.889" width="4.44761" height="1.97671" fill="#C4C4C4"/>
<rect x="170.907" y="132.348" width="7.90686" height="1.97671" fill="#C4C4C4"/>
<rect x="170.907" y="135.807" width="12.8486" height="1.97671" fill="#A7A7A7"/>
<rect x="185.238" y="135.807" width="7.90686" height="1.97671" fill="#A7A7A7"/>
<rect x="180.297" y="132.348" width="3.95343" height="1.97671" fill="#C4C4C4"/>
<rect x="170.907" y="139.266" width="3.95343" height="1.97671" fill="#C4C4C4"/>
<rect width="4.94179" height="1.97671" transform="matrix(-1 0 0 1 181.285 139.266)" fill="#C4C4C4"/>
<rect x="182.767" y="139.266" width="21.7439" height="1.97671" fill="#C4C4C4"/>
<rect x="170.907" y="142.726" width="3.95343" height="1.97671" fill="#C4C4C4"/>
<rect x="170.907" y="149.15" width="3.95343" height="1.97671" fill="#C4C4C4"/>
<rect x="170.907" y="152.609" width="3.95343" height="1.97671" fill="#C4C4C4"/>
<rect x="167.448" y="156.069" width="8.40104" height="1.97671" fill="#A7A7A7"/>
<rect x="170.907" y="145.691" width="38.5459" height="1.97671" fill="#C4C4C4"/>
<rect width="4.94179" height="1.97671" transform="matrix(-1 0 0 1 181.285 142.726)" fill="#C4C4C4"/>
<rect width="4.94179" height="1.97671" transform="matrix(-1 0 0 1 181.285 149.15)" fill="#C4C4C4"/>
<rect width="30.6391" height="1.97671" transform="matrix(-1 0 0 1 213.406 149.15)" fill="#C4C4C4"/>
<rect width="4.94179" height="1.97671" transform="matrix(-1 0 0 1 181.285 152.609)" fill="#C4C4C4"/>
<rect width="30.6391" height="1.97671" transform="matrix(-1 0 0 1 213.406 152.609)" fill="#C4C4C4"/>
<rect width="4.94179" height="1.97671" transform="matrix(-1 0 0 1 201.051 142.726)" fill="#C4C4C4"/>
<rect width="4.94179" height="1.97671" transform="matrix(-1 0 0 1 210.935 139.266)" fill="#C4C4C4"/>
<rect x="182.767" y="142.726" width="11.8603" height="1.97671" fill="#C4C4C4"/>
<rect x="185.732" y="132.348" width="6.42432" height="1.97671" fill="#C4C4C4"/>
<rect x="193.639" y="132.348" width="18.2846" height="1.97671" fill="#C4C4C4"/>
<rect x="176.837" y="128.889" width="4.44761" height="1.97671" fill="#C4C4C4"/>
<rect x="182.767" y="128.889" width="16.3079" height="1.97671" fill="#C4C4C4"/>
<rect x="200.558" y="128.889" width="16.3079" height="1.97671" fill="#C4C4C4"/>
<rect x="170.907" y="118.511" width="4.44761" height="1.97671" fill="#C4C4C4"/>
<rect x="176.837" y="118.511" width="4.44761" height="1.97671" fill="#C4C4C4"/>
<rect x="182.767" y="118.511" width="16.3079" height="1.97671" fill="#C4C4C4"/>
<rect x="200.558" y="118.511" width="5.43597" height="1.97671" fill="#C4C4C4"/>
<rect x="206.488" y="121.97" width="5.43597" height="1.97671" fill="#C4C4C4"/>
<rect x="168.93" y="104.674" width="45.9586" height="1.97671" fill="#C4C4C4"/>
<rect x="168.93" y="108.133" width="10.8719" height="1.97671" fill="#C4C4C4"/>
<rect x="181.285" y="108.133" width="10.8719" height="1.97671" fill="#C4C4C4"/>
<rect x="193.639" y="108.133" width="10.8719" height="1.97671" fill="#C4C4C4"/>
<rect x="163" y="80.4592" width="33.6042" height="1.97671" fill="#A7A7A7"/>
<rect x="178.32" y="77" width="7.90686" height="1.97671" fill="#C4C4C4"/>
<rect x="177.825" y="83.9185" width="4.94179" height="1.97671" fill="#C4C4C4"/>
<circle cx="163.988" cy="88.366" r="0.988357" fill="#A7A7A7"/>
<circle cx="163.988" cy="91.825" r="0.988357" fill="#A7A7A7"/>
<circle cx="163.988" cy="95.2847" r="0.988357" fill="#A7A7A7"/>
<circle cx="165.965" cy="102.203" r="0.988357" fill="#A7A7A7"/>
<circle cx="167.942" cy="112.581" r="0.988357" fill="#A7A7A7"/>
<circle cx="167.942" cy="116.04" r="0.988357" fill="#A7A7A7"/>
<circle cx="167.942" cy="119.5" r="0.988357" fill="#A7A7A7"/>
<circle cx="167.942" cy="122.959" r="0.988357" fill="#A7A7A7"/>
<circle cx="167.942" cy="136.795" r="0.988357" fill="#A7A7A7"/>
<circle cx="163.988" cy="157.057" r="0.988357" fill="#A7A7A7"/>
<rect x="163.494" y="98.7441" width="0.494179" height="53.8655" fill="#A7A7A7"/>
</g>
<g filter="url(#filter2_d_90_839)">
<rect x="181.228" y="111.266" width="87.635" height="49.8993" fill="white" stroke="#333333"/>
<rect x="222.664" y="161.59" width="4.55592" height="6.83388" fill="#333333"/>
<rect x="211.275" y="168.424" width="28.4745" height="1.13898" fill="#333333"/>
<rect x="187.748" y="128.317" width="15.7963" height="27.2048" rx="2" fill="#7A1490"/>
<rect x="240.402" y="128.317" width="21.9394" height="27.2048" rx="2" fill="#D9DADA"/>
<rect x="187.748" y="117.787" width="74.5938" height="7.0206" rx="2" fill="#EBECEC"/>
<rect x="206.178" y="128.317" width="30.7151" height="3.5103" rx="1.75515" fill="#333333"/>
<rect x="206.178" y="135.338" width="30.7151" height="3.5103" rx="1.75515" fill="#EBECEC"/>
<rect x="206.178" y="142.359" width="30.7151" height="13.1636" rx="2" fill="#EBECEC"/>
</g>
<path fill-rule="evenodd" clip-rule="evenodd" d="M598.116 90.8623L597.002 93.3824C596.745 93.3549 596.655 93.3296 596.559 93.3031C596.454 93.2738 596.343 93.2429 595.997 93.2059L595.495 90.5439C594.635 90.5457 593.8 90.6491 592.999 90.8428L593.177 93.636C592.938 93.7315 592.846 93.7517 592.749 93.7729C592.642 93.7963 592.529 93.8209 592.206 93.9499L590.505 91.7916C589.76 92.1885 589.067 92.6712 588.44 93.2265L589.908 95.6504C589.74 95.8471 589.668 95.9081 589.592 95.9721C589.508 96.0428 589.42 96.1173 589.193 96.3828L586.662 95.2551C586.194 95.9482 585.805 96.6992 585.509 97.495L587.943 98.9641C587.885 99.2168 587.849 99.3047 587.811 99.3969C587.77 99.4988 587.726 99.6061 587.648 99.9472L584.896 100.133C584.859 100.49 584.841 100.854 584.841 101.221C584.841 101.708 584.873 102.188 584.937 102.658L587.732 102.818C587.797 103.069 587.806 103.163 587.815 103.263C587.825 103.372 587.836 103.488 587.924 103.826L585.626 105.246C585.947 106.036 586.361 106.778 586.852 107.46L589.323 106.329C589.497 106.521 589.549 106.6 589.603 106.684C589.662 106.776 589.725 106.874 589.959 107.132L588.63 109.379C589.274 109.924 589.984 110.394 590.746 110.775L592.353 108.693C592.595 108.782 592.678 108.828 592.764 108.877C592.859 108.931 592.96 108.987 593.287 109.107L593.151 111.635C593.912 111.807 594.704 111.898 595.518 111.898C595.571 111.898 595.624 111.898 595.676 111.897L596.127 109.368C596.382 109.333 596.476 109.336 596.575 109.339C596.684 109.342 596.8 109.345 597.144 109.298L598.175 111.565C599.009 111.352 599.803 111.04 600.545 110.643L599.78 108.201C599.989 108.05 600.074 108.008 600.163 107.964C600.261 107.916 600.365 107.865 600.648 107.662L602.618 109.196C603.253 108.63 603.821 107.989 604.306 107.287L602.475 105.457C602.591 105.225 602.647 105.149 602.706 105.068C602.77 104.979 602.838 104.886 602.995 104.573L605.5 105.019C605.799 104.235 606.007 103.406 606.114 102.545L603.596 101.766C603.592 101.506 603.606 101.412 603.621 101.314C603.637 101.205 603.654 101.09 603.649 100.74L606.12 99.9472C606.018 99.0882 605.814 98.2604 605.52 97.4764L602.885 97.9731C602.762 97.7452 602.731 97.6555 602.698 97.5614C602.662 97.4573 602.624 97.3477 602.458 97.0402L604.306 95.1555C603.824 94.4581 603.261 93.821 602.63 93.2576L600.505 94.9476C600.291 94.8034 600.222 94.7385 600.15 94.6703C600.07 94.595 599.986 94.5157 599.697 94.3211L600.472 91.7601C599.733 91.3727 598.944 91.0693 598.116 90.8623Z" fill="#7A1490"/>
<circle r="5.14085" transform="matrix(-1 0 0 1 595.519 101.221)" fill="white"/>
<g filter="url(#filter3_d_90_839)">
<rect width="40.7144" height="40.7144" rx="20.3572" transform="matrix(-1 0 0 1 636.177 90.5437)" fill="white"/>
</g>
<path fill-rule="evenodd" clip-rule="evenodd" d="M618.602 98.159L617.231 101.259C616.915 101.225 616.804 101.194 616.686 101.161C616.557 101.125 616.42 101.087 615.995 101.042L615.378 97.7673C614.32 97.7696 613.292 97.8968 612.307 98.1349L612.526 101.571C612.232 101.688 612.118 101.713 611.999 101.739C611.868 101.768 611.729 101.798 611.332 101.957L609.239 99.302C608.323 99.7903 607.471 100.384 606.7 101.067L608.505 104.049C608.298 104.291 608.209 104.366 608.116 104.444C608.013 104.531 607.904 104.623 607.625 104.95L604.512 103.562C603.936 104.415 603.458 105.339 603.094 106.318L606.088 108.125C606.016 108.436 605.972 108.544 605.926 108.657C605.875 108.783 605.821 108.914 605.725 109.334L602.339 109.562C602.295 110.002 602.272 110.449 602.272 110.901C602.272 111.501 602.312 112.091 602.39 112.669L605.828 112.865C605.908 113.174 605.919 113.29 605.931 113.412C605.943 113.547 605.956 113.689 606.065 114.106L603.237 115.852C603.633 116.823 604.141 117.737 604.746 118.576L607.786 117.184C608 117.42 608.063 117.518 608.129 117.621C608.202 117.734 608.28 117.854 608.568 118.172L606.932 120.936C607.725 121.606 608.598 122.184 609.536 122.653L611.512 120.092C611.811 120.201 611.912 120.258 612.018 120.318C612.135 120.384 612.259 120.454 612.661 120.601L612.494 123.711C613.43 123.923 614.405 124.035 615.406 124.035C615.471 124.035 615.536 124.034 615.6 124.033L616.154 120.923C616.468 120.88 616.584 120.883 616.706 120.886C616.84 120.89 616.982 120.894 617.406 120.836L618.673 123.625C619.699 123.362 620.677 122.979 621.59 122.491L620.648 119.486C620.906 119.301 621.01 119.25 621.119 119.196C621.24 119.136 621.367 119.073 621.716 118.824L624.139 120.71C624.921 120.014 625.619 119.226 626.216 118.362L623.963 116.111C624.107 115.827 624.175 115.732 624.247 115.633C624.326 115.524 624.41 115.409 624.603 115.025L627.684 115.573C628.051 114.608 628.308 113.589 628.439 112.53L625.342 111.571C625.337 111.252 625.354 111.136 625.372 111.015C625.392 110.881 625.413 110.74 625.407 110.31L628.447 109.334C628.321 108.277 628.07 107.259 627.709 106.295L624.467 106.906C624.316 106.626 624.278 106.515 624.238 106.399C624.194 106.271 624.147 106.137 623.943 105.758L626.216 103.44C625.623 102.582 624.93 101.798 624.154 101.105L621.54 103.184C621.276 103.007 621.192 102.927 621.103 102.843C621.005 102.75 620.901 102.653 620.546 102.414L621.499 99.2633C620.591 98.7868 619.62 98.4135 618.602 98.159Z" fill="#D9DADA"/>
<circle r="6.32363" transform="matrix(-1 0 0 1 615.406 110.901)" fill="white"/>
<path fill-rule="evenodd" clip-rule="evenodd" d="M601.855 118.32L601.169 119.87C601.012 119.853 600.956 119.838 600.897 119.821C600.832 119.803 600.764 119.784 600.551 119.761L600.242 118.124C599.714 118.125 599.2 118.189 598.707 118.308L598.817 120.026C598.67 120.085 598.613 120.097 598.553 120.11C598.488 120.125 598.418 120.14 598.22 120.219L597.173 118.891C596.715 119.136 596.289 119.432 595.903 119.774L596.806 121.265C596.703 121.386 596.658 121.423 596.612 121.463C596.56 121.506 596.506 121.552 596.366 121.715L594.809 121.022C594.522 121.448 594.283 121.91 594.1 122.399L595.597 123.303C595.562 123.458 595.54 123.513 595.517 123.569C595.491 123.632 595.464 123.698 595.416 123.908L593.723 124.022C593.701 124.242 593.689 124.465 593.689 124.691C593.689 124.991 593.71 125.286 593.748 125.575L595.468 125.673C595.508 125.828 595.513 125.886 595.519 125.947C595.525 126.014 595.532 126.085 595.586 126.294L594.172 127.167C594.37 127.652 594.624 128.109 594.927 128.529L596.447 127.833C596.553 127.951 596.585 128 596.618 128.051C596.655 128.108 596.694 128.168 596.838 128.327L596.02 129.709C596.416 130.044 596.853 130.333 597.322 130.567L598.31 129.287C598.459 129.341 598.51 129.37 598.563 129.4C598.621 129.433 598.683 129.468 598.884 129.541L598.801 131.096C599.269 131.202 599.756 131.258 600.256 131.258C600.289 131.258 600.321 131.258 600.354 131.257L600.631 129.702C600.788 129.681 600.846 129.682 600.907 129.684C600.974 129.686 601.045 129.688 601.257 129.659L601.89 131.053C602.403 130.922 602.892 130.73 603.349 130.486L602.878 128.984C603.007 128.891 603.059 128.866 603.113 128.839C603.174 128.809 603.238 128.777 603.412 128.653L604.623 129.596C605.014 129.248 605.363 128.853 605.661 128.422L604.536 127.296C604.607 127.154 604.641 127.107 604.677 127.057C604.717 127.003 604.759 126.945 604.855 126.753L606.396 127.027C606.579 126.545 606.708 126.035 606.773 125.506L605.225 125.026C605.222 124.867 605.231 124.809 605.24 124.748C605.25 124.681 605.26 124.611 605.257 124.395L606.777 123.908C606.714 123.379 606.589 122.87 606.408 122.388L604.787 122.694C604.712 122.553 604.693 122.498 604.673 122.44C604.651 122.376 604.627 122.309 604.525 122.12L605.662 120.961C605.365 120.532 605.019 120.14 604.631 119.793L603.324 120.833C603.192 120.744 603.15 120.704 603.105 120.662C603.056 120.616 603.004 120.567 602.827 120.447L603.303 118.872C602.849 118.634 602.364 118.447 601.855 118.32Z" fill="#A7A7A7"/>
<circle r="3.16185" transform="matrix(-1 0 0 1 600.256 124.691)" fill="white"/>
<path d="M662.144 512.735L667.533 472.42L668.04 444.582L647.348 449.674L626.655 454.767L585.271 464.951L573.335 512.735" stroke="#7A1490" stroke-miterlimit="22.9256" stroke-linecap="round" stroke-linejoin="round"/>
<path d="M324.49 483.526H289.661" stroke="#7A1490" stroke-miterlimit="22.9256" stroke-linecap="round" stroke-linejoin="round"/>
<path d="M280.81 494.59L278.598 514.062" stroke="#7A1490" stroke-miterlimit="22.9256" stroke-linecap="round" stroke-linejoin="round"/>
<path d="M535.276 480.871H503.412" stroke="#7A1490" stroke-miterlimit="22.9256" stroke-linecap="round" stroke-linejoin="round"/>
</g>
<defs>
<filter id="filter0_d_90_839" x="-3.8734" y="361.484" width="113.498" height="91.7261" filterUnits="userSpaceOnUse" color-interpolation-filters="sRGB">
<feFlood flood-opacity="0" result="BackgroundImageFix"/>
<feColorMatrix in="SourceAlpha" type="matrix" values="0 0 0 0 0 0 0 0 0 0 0 0 0 0 0 0 0 0 127 0" result="hardAlpha"/>
<feOffset dx="15" dy="4"/>
<feGaussianBlur stdDeviation="15"/>
<feComposite in2="hardAlpha" operator="out"/>
<feColorMatrix type="matrix" values="0 0 0 0 0 0 0 0 0 0 0 0 0 0 0 0 0 0 0.1 0"/>
<feBlend mode="normal" in2="BackgroundImageFix" result="effect1_dropShadow_90_839"/>
<feBlend mode="normal" in="SourceGraphic" in2="effect1_dropShadow_90_839" result="shape"/>
</filter>
<filter id="filter1_d_90_839" x="605.107" y="197.568" width="132.839" height="153.65" filterUnits="userSpaceOnUse" color-interpolation-filters="sRGB">
<feFlood flood-opacity="0" result="BackgroundImageFix"/>
<feColorMatrix in="SourceAlpha" type="matrix" values="0 0 0 0 0 0 0 0 0 0 0 0 0 0 0 0 0 0 127 0" result="hardAlpha"/>
<feOffset dx="4" dy="4"/>
<feGaussianBlur stdDeviation="15"/>
<feComposite in2="hardAlpha" operator="out"/>
<feColorMatrix type="matrix" values="0 0 0 0 0 0 0 0 0 0 0 0 0 0 0 0 0 0 0.1 0"/>
<feBlend mode="normal" in2="BackgroundImageFix" result="effect1_dropShadow_90_839"/>
<feBlend mode="normal" in="SourceGraphic" in2="effect1_dropShadow_90_839" result="shape"/>
</filter>
<filter id="filter2_d_90_839" x="150.728" y="84.7659" width="148.635" height="118.797" filterUnits="userSpaceOnUse" color-interpolation-filters="sRGB">
<feFlood flood-opacity="0" result="BackgroundImageFix"/>
<feColorMatrix in="SourceAlpha" type="matrix" values="0 0 0 0 0 0 0 0 0 0 0 0 0 0 0 0 0 0 127 0" result="hardAlpha"/>
<feOffset dy="4"/>
<feGaussianBlur stdDeviation="15"/>
<feComposite in2="hardAlpha" operator="out"/>
<feColorMatrix type="matrix" values="0 0 0 0 0 0 0 0 0 0 0 0 0 0 0 0 0 0 0.1 0"/>
<feBlend mode="normal" in2="BackgroundImageFix" result="effect1_dropShadow_90_839"/>
<feBlend mode="normal" in="SourceGraphic" in2="effect1_dropShadow_90_839" result="shape"/>
</filter>
<filter id="filter3_d_90_839" x="569.462" y="64.5437" width="100.714" height="100.714" filterUnits="userSpaceOnUse" color-interpolation-filters="sRGB">
<feFlood flood-opacity="0" result="BackgroundImageFix"/>
<feColorMatrix in="SourceAlpha" type="matrix" values="0 0 0 0 0 0 0 0 0 0 0 0 0 0 0 0 0 0 127 0" result="hardAlpha"/>
<feOffset dx="4" dy="4"/>
<feGaussianBlur stdDeviation="15"/>
<feComposite in2="hardAlpha" operator="out"/>
<feColorMatrix type="matrix" values="0 0 0 0 0 0 0 0 0 0 0 0 0 0 0 0 0 0 0.1 0"/>
<feBlend mode="normal" in2="BackgroundImageFix" result="effect1_dropShadow_90_839"/>
<feBlend mode="normal" in="SourceGraphic" in2="effect1_dropShadow_90_839" result="shape"/>
</filter>
<linearGradient id="paint0_linear_90_839" x1="314.346" y1="138.417" x2="472.557" y2="138.417" gradientUnits="userSpaceOnUse">
<stop stop-color="#F4CCCD"/>
<stop offset="1" stop-color="#BFE2FF"/>
</linearGradient>
<clipPath id="clip0_90_839">
<rect width="771" height="515" fill="white"/>
</clipPath>
</defs>
</svg>
